Vivado/ECE4300_Labs.sim/sim_1/behav/xsim/simulate.log
Time resolution is 1 ps
Time	 PC	 npc	 data_out of MEM	 IF_ID_instr	 IF_ID_npc
0	 0		 1		 8c010001	 00000000	 0
Time: 5, Write Data: 00000000, Write En: 0, RD:  0
25	 1		 2		 8c020002	 8c010001	 1
35	 2		 3		 8c030003	 8c020002	 2
Time: 45, Write Data: 00000000, Write En: 1, RD:  0
45	 3		 4		 80000000	 8c030003	 3
Time: 55, Write Data: 00000001, Write En: 1, RD:  1
55	 4		 5		 80000000	 80000000	 4
Time: 65, Write Data: 00000002, Write En: 1, RD:  2
65	 5		 6		 00220820	 80000000	 5
Time: 75, Write Data: 00000003, Write En: 1, RD:  3
75	 6		 7		 80000000	 00220820	 6
Time: 85, Write Data: 00000000, Write En: 0, RD:  0
85	 7		 8		 80000000	 80000000	 7
95	 8		 9		 80000000	 80000000	 8
Time: 105, Write Data: 00000003, Write En: 1, RD:  1
105	 9		 10		 00230820	 80000000	 9
Time: 115, Write Data: 00000000, Write En: 0, RD:  0
115	 10		 11		 80000000	 00230820	 10
125	 11		 12		 80000000	 80000000	 11
135	 12		 13		 80000000	 80000000	 12
Time: 145, Write Data: 00000006, Write En: 1, RD:  1
145	 13		 14		 00210820	 80000000	 13
Time: 155, Write Data: 00000000, Write En: 0, RD:  0
155	 14		 15		 80000000	 00210820	 14
165	 15		 16		 80000000	 80000000	 15
175	 16		 17		 80000000	 80000000	 16
Time: 185, Write Data: 0000000c, Write En: 1, RD:  1
185	 17		 18		 80000000	 80000000	 17
Time: 195, Write Data: 00000000, Write En: 0, RD:  0
195	 18		 19		 00200820	 80000000	 18
205	 19		 20		 80000000	 00200820	 19
215	 20		 21		 80000000	 80000000	 20
225	 21		 22		 80000000	 80000000	 21
Time: 235, Write Data: 0000000c, Write En: 1, RD:  1
235	 22		 23		 80000000	 80000000	 22
Time: 245, Write Data: 00000000, Write En: 0, RD:  0
245	 23		 24		 80000000	 80000000	 23
255	 24		 25		 xxxxxxxx	 80000000	 24
265	 25		 26		 xxxxxxxx	 xxxxxxxx	 25
$finish called at time : 270 ns : File "C:/Users/Jorda/ECE4300_Labs/ECE4300_Labs.srcs/sim_1/new/test_PIPELINE.v" Line 109
